{
	"info": {
		"_postman_id": "e6ef2945-77aa-4100-bf93-b050584f8df5",
		"name": "Veebiteenused",
		"schema": "https://schema.getpostman.com/json/collection/v2.1.0/collection.json"
	},
	"item": [
		{
			"name": "bicycleShopResource",
			"description": "",
			"item": [
				{
					"name": "Put new bicycleShop",
					"event": [
						{
							"listen": "test",
							"script": {
								"id": "52410c5a-20d1-4551-8794-f0eb3ed89b01",
								"type": "text/javascript",
								"exec": [
									"pm.test(\"Test has correct name\", function () {",
									"    var jsonData = pm.response.json();",
									"    pm.expect(jsonData.name).to.eql(\"Jalgrattad\");",
									"});"
								]
							}
						}
					],
					"request": {
						"method": "PUT",
						"header": [
							{
								"key": "Authorization",
								"value": "Basic a29vbGlrb3R0OjlySXhnZXk3NEtlODdPVlloQ1pmZXp5SjZnOTVVZUxJOVl4SWhZMEZ1SDht",
								"disabled": true
							},
							{
								"key": "Content-Type",
								"value": "application/json"
							}
						],
						"body": {
							"mode": "raw",
							"raw": "{\n  \"token\": \"salajane\",\n  \"requestCode\": \"2\",\n  \"name\": \"Jalgrattad\",\n  \"createdDate\": \"2018-05-06\",\n  \"location\": \"Tallinn\",\n  \"openHour\": 5,\n  \"closeHour\": 22\n}"
						},
						"url": {
							"raw": "http://localhost:8080/BicycleShopApplication/webresources/bicycleShops",
							"protocol": "http",
							"host": [
								"localhost"
							],
							"port": "8080",
							"path": [
								"BicycleShopApplication",
								"webresources",
								"bicycleShops"
							]
						}
					},
					"response": []
				},
				{
					"name": "Get bicycleShop by id",
					"event": [
						{
							"listen": "test",
							"script": {
								"id": "3f51d956-b89d-41b9-9361-3fade99d1a5c",
								"type": "text/javascript",
								"exec": [
									"pm.test(\"Test has correct id\", function () {",
									"    var jsonData = pm.response.json();",
									"    pm.expect(jsonData.id).to.eql(2);",
									"});"
								]
							}
						}
					],
					"request": {
						"method": "GET",
						"header": [],
						"body": {},
						"url": {
							"raw": "http://localhost:8080/BicycleShopApplication/webresources/bicycleShops/2?token=salajane",
							"protocol": "http",
							"host": [
								"localhost"
							],
							"port": "8080",
							"path": [
								"BicycleShopApplication",
								"webresources",
								"bicycleShops",
								"2"
							],
							"query": [
								{
									"key": "token",
									"value": "salajane"
								}
							]
						}
					},
					"response": []
				},
				{
					"name": "Get bicycleShop list",
					"event": [
						{
							"listen": "test",
							"script": {
								"id": "d02c2e24-8b38-44b5-b1e1-27c1e33d6d3e",
								"type": "text/javascript",
								"exec": [
									"pm.test(\"Test BicycleShop name equals\", function () {",
									"    var jsonData = pm.response.json();",
									"    pm.expect(jsonData.BicycleShop[0].name).to.eql(\"Veloplus\");",
									"});"
								]
							}
						}
					],
					"request": {
						"method": "GET",
						"header": [],
						"body": {},
						"url": {
							"raw": "http://localhost:8080/BicycleShopApplication/webresources/bicycleShops/list?token=salajane&currentHour=12",
							"protocol": "http",
							"host": [
								"localhost"
							],
							"port": "8080",
							"path": [
								"BicycleShopApplication",
								"webresources",
								"bicycleShops",
								"list"
							],
							"query": [
								{
									"key": "token",
									"value": "salajane"
								},
								{
									"key": "currentHour",
									"value": "12"
								}
							]
						}
					},
					"response": []
				},
				{
					"name": "Get bicycleShop bicycles",
					"event": [
						{
							"listen": "test",
							"script": {
								"id": "6c662933-1e31-459a-9adf-645534fac8b8",
								"type": "text/javascript",
								"exec": [
									"pm.test(\"Test bicycle shop first element\", function () {",
									"    var jsonData = pm.response.json();",
									"    pm.expect(jsonData.bicycleShopBicycle[0].id).to.eql(0);",
									"    pm.expect(jsonData.bicycleShopBicycle[0].color).to.eql(\"white\");",
									"});"
								]
							}
						}
					],
					"request": {
						"method": "GET",
						"header": [],
						"body": {},
						"url": {
							"raw": "http://localhost:8080/BicycleShopApplication/webresources/bicycleShops/bicycle-list/2?token=salajane",
							"protocol": "http",
							"host": [
								"localhost"
							],
							"port": "8080",
							"path": [
								"BicycleShopApplication",
								"webresources",
								"bicycleShops",
								"bicycle-list",
								"2"
							],
							"query": [
								{
									"key": "token",
									"value": "salajane"
								}
							]
						}
					},
					"response": []
				},
				{
					"name": "PUT new bicycle to bicycleShop",
					"event": [
						{
							"listen": "test",
							"script": {
								"id": "da51d200-5469-49c8-a03e-20fb117e368a",
								"type": "text/javascript",
								"exec": [
									"pm.test(\"Test correct quantity\", function () {",
									"    var jsonData = pm.response.json();",
									"    pm.expect(jsonData.quantity).to.eql(10);",
									"});",
									"",
									"pm.test(\"Test correct bicycle\", function () {",
									"    var jsonData = pm.response.json();",
									"    pm.expect(jsonData.bicycle.id).to.eql(1);",
									"});"
								]
							}
						}
					],
					"request": {
						"method": "PUT",
						"header": [
							{
								"key": "Content-Type",
								"value": "application/json"
							}
						],
						"body": {
							"mode": "raw",
							"raw": "{\n  \"token\": \"salajane\",\n  \"bicycleShopId\": 2,\n  \"bicycleId\": 1,\n  \"quantity\": 10,\n  \"unitPrice\": 300\n}"
						},
						"url": {
							"raw": "http://localhost:8080/BicycleShopApplication/webresources/bicycleShops/add-bicycle",
							"protocol": "http",
							"host": [
								"localhost"
							],
							"port": "8080",
							"path": [
								"BicycleShopApplication",
								"webresources",
								"bicycleShops",
								"add-bicycle"
							]
						}
					},
					"response": []
				}
			]
		},
		{
			"name": "bicycleResource",
			"description": "",
			"item": [
				{
					"name": "GET bicycle by id",
					"event": [
						{
							"listen": "test",
							"script": {
								"id": "f4e64b12-76db-472d-88cd-d6562bd01c44",
								"type": "text/javascript",
								"exec": [
									"pm.test(\"Test correct id\", function () {",
									"    var jsonData = pm.response.json();",
									"    pm.expect(jsonData.id).to.eql(1);",
									"});",
									"",
									"pm.test(\"Test correct manufacturer\", function () {",
									"    var jsonData = pm.response.json();",
									"    pm.expect(jsonData.manufacturer).to.eql(\"Merida\");",
									"});"
								]
							}
						}
					],
					"request": {
						"method": "GET",
						"header": [],
						"body": {},
						"url": {
							"raw": "http://localhost:8080/BicycleShopApplication/webresources/bicycles/1?token=salajane",
							"protocol": "http",
							"host": [
								"localhost"
							],
							"port": "8080",
							"path": [
								"BicycleShopApplication",
								"webresources",
								"bicycles",
								"1"
							],
							"query": [
								{
									"key": "token",
									"value": "salajane"
								}
							]
						}
					},
					"response": []
				},
				{
					"name": "GET all bicycles",
					"event": [
						{
							"listen": "test",
							"script": {
								"id": "f78b9dc2-2224-48ab-86d0-7a6f1b654de2",
								"type": "text/javascript",
								"exec": [
									"pm.test(\"Test first bicycle correct id\", function () {",
									"    var jsonData = pm.response.json();",
									"    pm.expect(jsonData.bicycle[0].id).to.eql(0);",
									"});",
									"",
									"pm.test(\"Test second bicycle correct name\", function () {",
									"    var jsonData = pm.response.json();",
									"    pm.expect(jsonData.bicycle[1].name).to.eql(\"Kiire Merida jalgratas\");",
									"});"
								]
							}
						}
					],
					"request": {
						"method": "GET",
						"header": [],
						"body": {},
						"url": {
							"raw": "http://localhost:8080/BicycleShopApplication/webresources/bicycles?token=salajane",
							"protocol": "http",
							"host": [
								"localhost"
							],
							"port": "8080",
							"path": [
								"BicycleShopApplication",
								"webresources",
								"bicycles"
							],
							"query": [
								{
									"key": "token",
									"value": "salajane"
								}
							]
						}
					},
					"response": []
				},
				{
					"name": "PUT new bicycle",
					"event": [
						{
							"listen": "test",
							"script": {
								"id": "17ee8fee-684d-4b96-8aa7-3611ad3b953f",
								"type": "text/javascript",
								"exec": [
									"pm.test(\"Test correct name\", function () {",
									"    var jsonData = pm.response.json();",
									"    pm.expect(jsonData.name).to.eql(\"Tilluke ratas\");",
									"});"
								]
							}
						}
					],
					"request": {
						"method": "PUT",
						"header": [
							{
								"key": "Content-Type",
								"value": "application/json"
							}
						],
						"body": {
							"mode": "raw",
							"raw": "{\n  \"token\": \"salajane\",\n  \"name\": \"Tilluke ratas\",\n  \"code\": \"0894012489\",\n  \"color\": \"sinine\",\n  \"manufacturer\": \"Merida\",\n  \"model\": \"Crossway 100\",\n  \"modelYear\": 1997,\n  \"size\": 33\n}"
						},
						"url": {
							"raw": "http://localhost:8080/BicycleShopApplication/webresources/bicycles",
							"protocol": "http",
							"host": [
								"localhost"
							],
							"port": "8080",
							"path": [
								"BicycleShopApplication",
								"webresources",
								"bicycles"
							]
						}
					},
					"response": []
				}
			]
		}
	]
}